#0 Phys.Rev.C 85, 064914 (2012)  
#0 +pippo0 -+.000000 +.000000 +  
+1.08164 +0.0692813 -0.000000 +0.000000 +0.0004194 -0.00359996 +0.00359996
+1.27786 +0.0828747 -0.000000 +0.000000 +0.000504879 -0.0043063 +0.0043063
+1.47506 +0.0962352 -0.000000 +0.000000 +0.000621801 -0.00500053 +0.00500053
+1.67127 +0.105263 -0.000000 +0.000000 +0.000772546 -0.00546963 +0.00546963
+1.86748 +0.112471 -0.000000 +0.000000 +0.000952328 -0.00584416 +0.00584416
+2.0637 +0.120031 -0.000000 +0.000000 +0.00115052 -0.00623699 +0.00623699
+2.26188 +0.125193 -0.000000 +0.000000 +0.00142343 -0.00650522 +0.00650522
+2.45908 +0.124436 -0.000000 +0.000000 +0.00179927 -0.00646588 +0.00646588
+2.6553 +0.125841 -0.000000 +0.000000 +0.00225918 -0.00653889 +0.00653889
+2.85348 +0.131877 -0.000000 +0.000000 +0.002827 -0.00685253 +0.00685253
+3.15619 +0.120636 -0.000000 +0.000000 +0.00553934 -0.00660751 +0.00660751
+3.64919 +0.105541 -0.000000 +0.000000 +0.0113803 -0.00683984 +0.00683984
