137692
137691
137686
137685
137639
137638
137608
137595
137549
137546
137544
137541
137539
137531
137530
137443
137441
137440
137439
137434
137432
137431
137366
137243
137236
137235
137232
137231
137162
137161 