130840
130834
130799
130798
130793
130704
130696
130519
130179
130172
130158
130157
129667
129659
129653
129652
129641
129639
129599
129514
129513
129512
128913
128855
128853
128843
128836
128835
128824
128823
128820
128778
128777
128677
128615
128605
128582
128507
128504
128503
128495
127718
127714
127712