#  CMSpi0_v2_SPVZE_6070.txt
#  x  y  -ex  +ex  yerror  -yerror2  +yerror2
+1.79  +0.184  0	   0	   0.004	     -0.011	+0.011
+2.24  +0.195  0	   0	   0.004	     -0.012	+0.012
+2.74  +0.185  0	   0	   0.006	     -0.012	+0.012
+3.47  +0.159  0	   0	   0.006	     -0.013	+0.013
+4.89  +0.133  0	   0	   0.009	     -0.021	+0.021
+6.75  +0.137  0	   0	   0.024	     -0.047	+0.047
