#  ../kaonAvg_v2_SPVZE_4050.txt
#  x  y  -ex  +ex  yerror  -yerror2  +yerror2
0.528672	0.0489106		 0.0 	 0.0 	0.00721956	-0.002983  +0.002955
0.711525	0.0792096		 0.0 	 0.0 	0.00406162	-0.003334  +0.003259
0.903068	0.111497		 0.0 	 0.0 	0.00319047	-0.003802  +0.003666
1.09913		0.140193		 0.0 	 0.0 	0.00316077	-0.004260  +0.004062
1.29679		0.160466		 0.0 	 0.0 	0.003363	-0.004737  +0.004474
1.49562		0.181125		 0.0 	 0.0 	0.00374201	-0.005125  +0.004800
1.69496		0.195157		 0.0 	 0.0 	0.00425537	-0.005416  +0.005033
1.89471		0.20551		 	 0.0 	 0.0 	0.00502046	-0.005669  +0.005230
2.0944		0.213867		 0.0 	 0.0 	0.00587181	-0.005971  +0.005467
2.29374		0.216019		 0.0 	 0.0 	0.00704278	-0.005999  +0.005457
2.578		0.221106		 0.0 	 0.0 	0.0063583	-0.007363  +0.006872
2.97972		0.219427		 0.0 	 0.0 	0.00888409	-0.014734  +0.014444
3.37781		0.213155		 0.0 	 0.0 	0.0124239	-0.014708  +0.014424
3.77938		0.197608		 0.0 	 0.0 	0.0161828	-0.014000  +0.013690
