#  kink_v2_SPVZE_6070.txt
#  x  y  -ex  +ex  yerror  -yerror2  +yerror2
+0.312500  +0.016067  -0.062500  +0.062500  +0.009889  -0.001234  +0.001234
+0.437500  +0.036974  -0.062500  +0.062500  +0.008000  -0.002840  +0.002840
+0.562500  +0.056924  -0.062500  +0.062500  +0.007868  -0.004372  +0.004372
+0.687500  +0.075684  -0.062500  +0.062500  +0.008465  -0.005813  +0.005813
+0.812500  +0.102080  -0.062500  +0.062500  +0.009540  -0.007841  +0.007841
+0.937500  +0.116458  -0.062500  +0.062500  +0.011016  -0.008945  +0.008945
+1.125000  +0.126610  -0.125000  +0.125000  +0.009746  -0.009725  +0.009725
+1.375000  +0.128646  -0.125000  +0.125000  +0.013553  -0.009881  +0.009881
+1.625000  +0.146764  -0.125000  +0.125000  +0.019161  -0.011273  +0.011273
+1.875000  +0.171994  -0.125000  +0.125000  +0.026088  -0.013211  +0.013211
+2.125000  +0.180963  -0.125000  +0.125000  +0.035283  -0.013900  +0.013900
+2.375000  +0.183109  -0.125000  +0.125000  +0.049656  -0.014065  +0.014065
+2.750000  +0.139119  -0.250000  +0.250000  +0.048869  -0.010686  +0.010686
+3.250000  +0.191610  -0.250000  +0.250000  +0.075146  -0.018278  +0.018278
+3.750000  +0.108737  -0.250000  +0.250000  +0.130463  -0.010373  +0.010373
+4.250000  +0.177263  -0.250000  +0.250000  +0.176409  -0.027174  +0.027174
+4.750000  +0.189475  -0.250000  +0.250000  +0.232558  -0.029046  +0.029046
