#  ../kzero_v2_SPVZE_2030.txt
#  x  y  -ex  +ex  yerror  -yerror2  +yerror2
+0.529213  +0.032071  +0.000000  +0.000000  +0.002901  +0.005000  +0.001000
+0.712539  +0.055994  -0.000000  +0.000000  +0.001517  +0.003000  +0.001000
+0.903805  +0.081286  -0.000000  +0.000000  +0.001182  -0.001000  +0.001000
+1.099563  +0.103242  -0.000000  +0.000000  +0.001137  -0.001000  +0.001000
+1.297201  +0.125408  -0.000000  +0.000000  +0.001182  -0.001000  +0.001000
+1.495785  +0.145810  -0.000000  +0.000000  +0.001300  -0.001000  +0.001000
+1.694848  +0.156335  -0.000000  +0.000000  +0.001515  -0.001000  +0.001000
+1.894444  +0.171707  -0.000000  +0.000000  +0.001766  -0.001000  +0.001000
+2.094331  +0.181677  -0.000000  +0.000000  +0.002107  -0.001000  +0.001000
+2.293910  +0.185145  -0.000000  +0.000000  +0.002555  -0.001000  +0.001000
+2.575911  +0.190686  -0.000000  +0.000000  +0.002367  -0.001000  +0.001000
+2.976505  +0.200298  -0.000000  +0.000000  +0.003346  -0.001000  +0.001000
+3.378037  +0.192614  -0.000000  +0.000000  +0.004709  -0.001000  +0.001000
+3.779473  +0.175371  -0.000000  +0.000000  +0.006688  -0.001000  +0.001000
+4.392427  +0.157875  -0.000000  +0.000000  +0.006628  -0.001000  +0.001000
+5.410239  +0.141426  -0.000000  +0.000000  +0.011398  -0.001000  +0.001000
+6.745242  +0.107298  -0.000000  +0.000000  +0.014214  -0.001000  +0.001000
+8.807802  +0.138878  -0.000000  +0.000000  +0.028313  -0.001000  +0.001000
+10.799283  +0.055013  -0.000000  +0.000000  +0.049122  -0.001000  +0.001000
