#  ../lambda_v2_SPVZE_5060.txt
#  x  y  -ex  +ex  yerror  -yerror2  +yerror2
+0.722731  +0.033936  +0.000000  +0.000000  +0.011877  +0.010000  +0.002000
+0.908556  +0.059104  -0.000000  +0.000000  +0.008313  +0.005000  +0.002000
+1.102651  +0.096296  -0.000000  +0.000000  +0.006982  -0.002000  +0.002000
+1.300801  +0.126103  -0.000000  +0.000000  +0.006772  -0.002000  +0.002000
+1.498566  +0.152115  -0.000000  +0.000000  +0.006908  -0.002000  +0.002000
+1.698098  +0.184258  -0.000000  +0.000000  +0.007236  -0.002000  +0.002000
+1.896254  +0.193273  -0.000000  +0.000000  +0.007930  -0.002000  +0.002000
+2.095830  +0.214815  -0.000000  +0.000000  +0.008914  -0.002000  +0.002000
+2.294815  +0.235867  -0.000000  +0.000000  +0.010141  -0.002000  +0.002000
+2.578792  +0.252865  -0.000000  +0.000000  +0.009016  -0.002000  +0.002000
+2.977607  +0.283186  -0.000000  +0.000000  +0.012680  -0.002000  +0.002000
+3.380915  +0.256710  -0.000000  +0.000000  +0.017536  -0.002000  +0.002000
+3.777556  +0.238216  -0.000000  +0.000000  +0.023500  -0.002000  +0.002000
+4.376467  +0.259420  -0.000000  +0.000000  +0.025282  -0.002000  +0.002000
+5.401526  +0.280576  -0.000000  +0.000000  +0.048887  -0.002000  +0.002000
+6.684352  +0.205928  -0.000000  +0.000000  +0.065665  -0.002000  +0.002000
+8.825492  +0.176651  -0.000000  +0.000000  +0.123359  -0.002000  +0.002000
+10.768097  +0.547703  -0.000000  +0.000000  +0.313255  -0.002000  +0.002000
