#  final/lambda_v2_SPVZE_6070.txt
#  x  y  -ex  +ex  yerror  -yerror2  +yerror2
+0.721726  +0.049700  -0.121726  +0.078274  +0.019472  +0.000000  +0.000000
+0.906677  +0.052491  -0.106677  +0.093323  +0.013218  -0.000000  +0.000000
+1.102109  +0.091431  -0.102109  +0.097891  +0.011978  -0.000000  +0.000000
+1.299812  +0.122709  -0.099812  +0.100188  +0.011997  -0.005999  +0.005999
+1.498100  +0.146138  -0.098100  +0.101900  +0.012216  -0.006108  +0.006108
+1.697228  +0.186734  -0.097228  +0.102772  +0.013288  -0.006644  +0.006644
+1.895713  +0.182720  -0.095713  +0.104287  +0.014630  -0.007315  +0.007315
+2.095684  +0.218219  -0.095684  +0.104316  +0.016548  -0.008274  +0.008274
+2.295197  +0.222341  -0.095197  +0.104803  +0.019198  -0.009599  +0.009599
+2.579905  +0.230314  -0.179905  +0.220095  +0.016901  -0.008450  +0.008450
+2.977945  +0.267157  -0.177945  +0.222055  +0.023590  -0.011795  +0.011795
+3.375517  +0.236561  -0.175517  +0.224483  +0.032614  -0.016307  +0.016307
+3.779784  +0.249875  -0.179784  +0.220216  +0.039503  -0.019752  +0.019752
+4.387002  +0.194492  -0.387002  +0.612998  +0.039957  -0.019978  +0.019978
+5.393603  +0.182604  -0.393603  +0.606397  +0.078683  -0.039342  +0.039342
+6.730621  +0.195856  -0.730621  +1.269379  +0.114175  -0.057087  +0.057087
+8.797927  -0.015098  -0.797927  +1.202073  +0.270336  -0.135168  +0.135168
+10.866826  +0.289556  -0.866826  +1.133174  +0.403921  -0.201960  +0.201960
