#  ../omega_v2_SPVZE_2030.txt
#  x  y  -ex  +ex  yerror  -yerror2  +yerror2
1.7721	0.0363	0.0	0.0	0.0114	-0.0144	0.0144
2.2535	0.1215	0.0	0.0	0.0139	-0.0071	0.0071
2.7447	0.1936	0.0	0.0	0.0146	-0.0060	0.0060
3.2243	0.2464	0.0	0.0	0.0177	-0.0128	0.0128
3.7257	0.2062	0.0	0.0	0.0225	-0.0198	0.0198
4.2203	0.2375	0.0	0.0	0.0274	-0.0305	0.0305
4.7197	0.1963	0.0	0.0	0.0348	-0.0358	0.0358
5.3754	0.1426	0.0	0.0	0.0281	-0.0480	0.0480
