#  ../omega_v2_SPVZE_5060.txt
#  x  y  -ex  +ex  yerror  -yerror2  +yerror2
1.7680	0.1122	0.0	0.0	0.0410	-0.0065	0.0065
2.2486	0.1481	0.0	0.0	0.0394	-0.0137	0.0137
2.7388	0.2470	0.0	0.0	0.0429	-0.0135	0.0135
3.2322	0.2694	0.0	0.0	0.0559	-0.0150	0.0150
3.7188	0.2944	0.0	0.0	0.0663	-0.0160	0.0160
4.2264	0.3113	0.0	0.0	0.0978	-0.0169	0.0169
4.7272	0.1252	0.0	0.0	0.1357	-0.0216	0.0216
