#  ../omega_v2_SPVZE_1020.txt
#  x  y  -ex  +ex  yerror  -yerror2  +yerror2
1.7778	0.0659	0.0	0.0	0.0167	-0.0036	0.0036
2.2566	0.1185	0.0	0.0	0.0134	-0.0052	0.0052
2.7391	0.1456	0.0	0.0	0.0136	-0.0061	0.0061
3.2267	0.1337	0.0	0.0	0.0171	-0.0057	0.0057
3.7247	0.1828	0.0	0.0	0.0214	-0.0074	0.0074
4.2206	0.2556	0.0	0.0	0.0311	-0.0100	0.0100
4.7110	0.1125	0.0	0.0	0.0451	-0.0050	0.0050
5.3455	0.1967	0.0	0.0	0.0509	-0.0079	0.0079
