#  ../omega_v2_SPVZE_2030.txt
#  x  y  -ex  +ex  yerror  -yerror2  +yerror2
1.7721	0.0374	0.0	0.0	0.0120	-0.0144	0.0144
2.2535	0.1252	0.0	0.0	0.0141	-0.0071	0.0071
2.7447	0.1939	0.0	0.0	0.0151	-0.0060	0.0060
3.2243	0.2369	0.0	0.0	0.0180	-0.0128	0.0128
3.7257	0.2100	0.0	0.0	0.0225	-0.0198	0.0198
4.2203	0.2506	0.0	0.0	0.0286	-0.0305	0.0305
4.7197	0.1834	0.0	0.0	0.0347	-0.0358	0.0358
5.3754	0.1454	0.0	0.0	0.0297	-0.0480	0.0480
