#  ../phi_v2_SPVZE_2030.txt
#  x  y  -ex  +ex  yerror  -yerror2  +yerror2
+0.866729  +0.041852  +0.000000  +0.000000  +0.008121  -0.010000  +0.010000
+1.466730  +0.090843  -0.000000  +0.000000  +0.007587  -0.010000  +0.010000
+2.066730  +0.159644  -0.000000  +0.000000  +0.009290  -0.010000  +0.010000
+2.666730  +0.204743  -0.000000  +0.000000  +0.010334  -0.010000  +0.010000
+3.408770  +0.222392  -0.000000  +0.000000  +0.011716  -0.010000  +0.010000
+4.408770  +0.201878  -0.000000  +0.000000  +0.017838  -0.010000  +0.010000
+5.408770  +0.179146  -0.000000  +0.000000  +0.031489  -0.010000  +0.010000
