#  ../pion_v2_SPVZE_0510.txt
#  x  y  -ex  +ex  yerror  -yerror2  +yerror2
+0.175705  +0.011328  -0.000000  +0.000000  +0.000148  -0.002014  +0.002014
+0.251638  +0.015519  -0.000000  +0.000000  +0.000103  -0.002025  +0.002025
+0.348943  +0.023484  -0.000000  +0.000000  +0.000104  -0.002058  +0.002058
+0.448415  +0.031354  -0.000000  +0.000000  +0.000111  -0.002125  +0.002125
+0.548131  +0.038650  -0.000000  +0.000000  +0.000188  -0.002187  +0.002187
+0.648014  +0.045517  -0.000000  +0.000000  +0.000198  -0.002256  +0.002256
+0.746925  +0.051869  -0.000000  +0.000000  +0.000216  -0.002326  +0.002326
+0.847115  +0.058409  -0.000000  +0.000000  +0.000239  -0.002406  +0.002406
+0.947434  +0.064032  -0.000000  +0.000000  +0.000267  -0.002480  +0.002480
+1.047764  +0.069330  -0.000000  +0.000000  +0.000299  -0.002554  +0.002554
+1.148088  +0.074623  -0.000000  +0.000000  +0.000335  -0.002631  +0.002631
+1.248058  +0.079338  -0.000000  +0.000000  +0.000377  -0.002703  +0.002703
+1.348051  +0.083368  -0.000000  +0.000000  +0.000424  -0.002766  +0.002766
+1.448224  +0.087611  -0.000000  +0.000000  +0.000479  -0.002833  +0.002833
+1.548139  +0.091018  -0.000000  +0.000000  +0.000544  -0.002889  +0.002889
+1.648201  +0.094388  -0.000000  +0.000000  +0.000617  -0.002946  +0.002946
+1.747971  +0.097641  -0.000000  +0.000000  +0.000700  -0.003001  +0.003001
+1.848279  +0.099426  -0.000000  +0.000000  +0.000794  -0.003031  +0.003031
+1.948513  +0.102780  -0.000000  +0.000000  +0.000902  -0.003090  +0.003090
+2.048369  +0.105986  -0.000000  +0.000000  +0.001027  -0.003146  +0.003146
+2.148341  +0.105685  -0.000000  +0.000000  +0.001165  -0.003141  +0.003141
+2.247915  +0.106827  -0.000000  +0.000000  +0.001320  -0.003161  +0.003161
+2.348288  +0.108843  -0.000000  +0.000000  +0.001492  -0.003309  +0.003309
+2.448294  +0.109667  -0.000000  +0.000000  +0.001677  -0.003335  +0.003335
+2.548292  +0.110303  -0.000000  +0.000000  +0.001890  -0.003422  +0.003422
+2.648322  +0.110308  -0.000000  +0.000000  +0.002116  -0.003910  +0.003910
+2.748232  +0.112916  -0.000000  +0.000000  +0.002358  -0.004821  +0.004821
+2.848369  +0.108242  -0.000000  +0.000000  +0.002623  -0.005647  +0.005647
+2.948441  +0.105292  -0.000000  +0.000000  +0.002923  -0.006574  +0.006574
+3.093584  +0.107894  -0.000000  +0.000000  +0.002393  -0.007326  +0.007326
+3.294136  +0.109511  -0.000000  +0.000000  +0.002914  -0.007453  +0.007453
+3.494315  +0.103899  -0.000000  +0.000000  +0.003503  -0.007127  +0.007127
+3.694301  +0.100101  -0.000000  +0.000000  +0.004175  -0.006916  +0.006916
+3.894930  +0.098012  -0.000000  +0.000000  +0.004900  -0.006816  +0.006816
+4.180635  +0.094845  -0.000000  +0.000000  +0.004360  -0.006689  +0.006689
+4.582799  +0.081060  -0.000000  +0.000000  +0.005690  -0.005877  +0.005877
+4.984634  +0.078323  -0.000000  +0.000000  +0.007315  -0.005775  +0.005775
+5.387204  +0.059294  -0.000000  +0.000000  +0.009129  -0.004621  +0.004621
+5.787633  +0.065383  -0.000000  +0.000000  +0.010979  -0.005085  +0.005085
