#  ../xi_v2_SPVZE_0510.txt
#  x  y  -ex  +ex  yerror  -yerror2  +yerror2
1.3083	0.0206	0.0	0.0	0.0074	-0.0016	0.0016
1.7626	0.0476	0.0	0.0	0.0047	-0.0018	0.0018
2.2422	0.0696	0.0	0.0	0.0044	-0.0019	0.0019
2.7250	0.0957	0.0	0.0	0.0053	-0.0021	0.0021
3.2170	0.0980	0.0	0.0	0.0075	-0.0022	0.0022
3.7138	0.1135	0.0	0.0	0.0112	-0.0023	0.0023
4.2122	0.1082	0.0	0.0	0.0170	-0.0023	0.0023
4.7116	0.1704	0.0	0.0	0.0243	-0.0120	0.0120
5.3636	0.2228	0.0	0.0	0.0334	-0.0037	0.0037
